tests/alu/out/waves/alu_tb.vcd
$date
  Thu Dec 26 00:40:26 2019
$end
$version
  GHDL v0
$end
$timescale
  1 fs
$end
$scope module standard $end
$upscope $end
$scope module std_logic_1164 $end
$upscope $end
$scope module numeric_std $end
$upscope $end
$scope module std_logic_arith $end
$upscope $end
$scope module constants $end
$upscope $end
$scope module math_real $end
$upscope $end
$scope module alu_tb $end
$var reg 1 ! clk $end
$var reg 16 " a[15:0] $end
$var reg 16 # b[15:0] $end
$var reg 16 $ f[15:0] $end
$var reg 5 % flagin[4:0] $end
$var reg 5 & flagout[4:0] $end
$var reg 5 ' operationcontrol[4:0] $end
$scope module alu $end
$var reg 5 ( operationcontrol[4:0] $end
$var reg 16 ) a[15:0] $end
$var reg 16 * b[15:0] $end
$var reg 16 + f[15:0] $end
$var reg 5 , flagin[4:0] $end
$var reg 5 - flagout[4:0] $end
$var reg 16 . siga[15:0] $end
$var reg 16 / sigb[15:0] $end
$var reg 16 0 sigf[15:0] $end
$var reg 16 1 subtowscompb[15:0] $end
$var reg 16 2 sbcresult[15:0] $end
$var reg 16 3 carrytwoscomp[15:0] $end
$var reg 1 4 carryin $end
$var reg 1 5 carryout $end
$var reg 1 6 sbccarryout $end
$var reg 16 7 ftemp[15:0] $end
$scope module fadder $end
$var reg 16 8 a[15:0] $end
$var reg 16 9 b[15:0] $end
$var reg 1 : carryin $end
$var reg 16 ; sum[15:0] $end
$var reg 1 < carryout $end
$var reg 16 = temp[15:0] $end
$scope module f0 $end
$var reg 1 > a $end
$var reg 1 ? b $end
$var reg 1 @ cin $end
$var reg 1 A s $end
$var reg 1 B cout $end
$upscope $end
$scope module loop1(1) $end
$scope module fx $end
$var reg 1 C a $end
$var reg 1 D b $end
$var reg 1 E cin $end
$var reg 1 F s $end
$var reg 1 G cout $end
$upscope $end
$upscope $end
$scope module loop1(2) $end
$scope module fx $end
$var reg 1 H a $end
$var reg 1 I b $end
$var reg 1 J cin $end
$var reg 1 K s $end
$var reg 1 L cout $end
$upscope $end
$upscope $end
$scope module loop1(3) $end
$scope module fx $end
$var reg 1 M a $end
$var reg 1 N b $end
$var reg 1 O cin $end
$var reg 1 P s $end
$var reg 1 Q cout $end
$upscope $end
$upscope $end
$scope module loop1(4) $end
$scope module fx $end
$var reg 1 R a $end
$var reg 1 S b $end
$var reg 1 T cin $end
$var reg 1 U s $end
$var reg 1 V cout $end
$upscope $end
$upscope $end
$scope module loop1(5) $end
$scope module fx $end
$var reg 1 W a $end
$var reg 1 X b $end
$var reg 1 Y cin $end
$var reg 1 Z s $end
$var reg 1 [ cout $end
$upscope $end
$upscope $end
$scope module loop1(6) $end
$scope module fx $end
$var reg 1 \ a $end
$var reg 1 ] b $end
$var reg 1 ^ cin $end
$var reg 1 _ s $end
$var reg 1 ` cout $end
$upscope $end
$upscope $end
$scope module loop1(7) $end
$scope module fx $end
$var reg 1 a a $end
$var reg 1 b b $end
$var reg 1 c cin $end
$var reg 1 d s $end
$var reg 1 e cout $end
$upscope $end
$upscope $end
$scope module loop1(8) $end
$scope module fx $end
$var reg 1 f a $end
$var reg 1 g b $end
$var reg 1 h cin $end
$var reg 1 i s $end
$var reg 1 j cout $end
$upscope $end
$upscope $end
$scope module loop1(9) $end
$scope module fx $end
$var reg 1 k a $end
$var reg 1 l b $end
$var reg 1 m cin $end
$var reg 1 n s $end
$var reg 1 o cout $end
$upscope $end
$upscope $end
$scope module loop1(10) $end
$scope module fx $end
$var reg 1 p a $end
$var reg 1 q b $end
$var reg 1 r cin $end
$var reg 1 s s $end
$var reg 1 t cout $end
$upscope $end
$upscope $end
$scope module loop1(11) $end
$scope module fx $end
$var reg 1 u a $end
$var reg 1 v b $end
$var reg 1 w cin $end
$var reg 1 x s $end
$var reg 1 y cout $end
$upscope $end
$upscope $end
$scope module loop1(12) $end
$scope module fx $end
$var reg 1 z a $end
$var reg 1 { b $end
$var reg 1 | cin $end
$var reg 1 } s $end
$var reg 1 !" cout $end
$upscope $end
$upscope $end
$scope module loop1(13) $end
$scope module fx $end
$var reg 1 "" a $end
$var reg 1 #" b $end
$var reg 1 $" cin $end
$var reg 1 %" s $end
$var reg 1 &" cout $end
$upscope $end
$upscope $end
$scope module loop1(14) $end
$scope module fx $end
$var reg 1 '" a $end
$var reg 1 (" b $end
$var reg 1 )" cin $end
$var reg 1 *" s $end
$var reg 1 +" cout $end
$upscope $end
$upscope $end
$scope module loop1(15) $end
$scope module fx $end
$var reg 1 ," a $end
$var reg 1 -" b $end
$var reg 1 ." cin $end
$var reg 1 /" s $end
$var reg 1 0" cout $end
$upscope $end
$upscope $end
$upscope $end
$scope module twossub $end
$var reg 16 1" input[15:0] $end
$var reg 16 2" output[15:0] $end
$var reg 16 3" ina[15:0] $end
$var reg 16 4" inb[15:0] $end
$var reg 1 5" inc $end
$var reg 1 6" outc $end
$scope module fx $end
$var reg 16 7" a[15:0] $end
$var reg 16 8" b[15:0] $end
$var reg 1 9" carryin $end
$var reg 16 :" sum[15:0] $end
$var reg 1 ;" carryout $end
$var reg 16 <" temp[15:0] $end
$scope module f0 $end
$var reg 1 =" a $end
$var reg 1 >" b $end
$var reg 1 ?" cin $end
$var reg 1 @" s $end
$var reg 1 A" cout $end
$upscope $end
$scope module loop1(1) $end
$scope module fx $end
$var reg 1 B" a $end
$var reg 1 C" b $end
$var reg 1 D" cin $end
$var reg 1 E" s $end
$var reg 1 F" cout $end
$upscope $end
$upscope $end
$scope module loop1(2) $end
$scope module fx $end
$var reg 1 G" a $end
$var reg 1 H" b $end
$var reg 1 I" cin $end
$var reg 1 J" s $end
$var reg 1 K" cout $end
$upscope $end
$upscope $end
$scope module loop1(3) $end
$scope module fx $end
$var reg 1 L" a $end
$var reg 1 M" b $end
$var reg 1 N" cin $end
$var reg 1 O" s $end
$var reg 1 P" cout $end
$upscope $end
$upscope $end
$scope module loop1(4) $end
$scope module fx $end
$var reg 1 Q" a $end
$var reg 1 R" b $end
$var reg 1 S" cin $end
$var reg 1 T" s $end
$var reg 1 U" cout $end
$upscope $end
$upscope $end
$scope module loop1(5) $end
$scope module fx $end
$var reg 1 V" a $end
$var reg 1 W" b $end
$var reg 1 X" cin $end
$var reg 1 Y" s $end
$var reg 1 Z" cout $end
$upscope $end
$upscope $end
$scope module loop1(6) $end
$scope module fx $end
$var reg 1 [" a $end
$var reg 1 \" b $end
$var reg 1 ]" cin $end
$var reg 1 ^" s $end
$var reg 1 _" cout $end
$upscope $end
$upscope $end
$scope module loop1(7) $end
$scope module fx $end
$var reg 1 `" a $end
$var reg 1 a" b $end
$var reg 1 b" cin $end
$var reg 1 c" s $end
$var reg 1 d" cout $end
$upscope $end
$upscope $end
$scope module loop1(8) $end
$scope module fx $end
$var reg 1 e" a $end
$var reg 1 f" b $end
$var reg 1 g" cin $end
$var reg 1 h" s $end
$var reg 1 i" cout $end
$upscope $end
$upscope $end
$scope module loop1(9) $end
$scope module fx $end
$var reg 1 j" a $end
$var reg 1 k" b $end
$var reg 1 l" cin $end
$var reg 1 m" s $end
$var reg 1 n" cout $end
$upscope $end
$upscope $end
$scope module loop1(10) $end
$scope module fx $end
$var reg 1 o" a $end
$var reg 1 p" b $end
$var reg 1 q" cin $end
$var reg 1 r" s $end
$var reg 1 s" cout $end
$upscope $end
$upscope $end
$scope module loop1(11) $end
$scope module fx $end
$var reg 1 t" a $end
$var reg 1 u" b $end
$var reg 1 v" cin $end
$var reg 1 w" s $end
$var reg 1 x" cout $end
$upscope $end
$upscope $end
$scope module loop1(12) $end
$scope module fx $end
$var reg 1 y" a $end
$var reg 1 z" b $end
$var reg 1 {" cin $end
$var reg 1 |" s $end
$var reg 1 }" cout $end
$upscope $end
$upscope $end
$scope module loop1(13) $end
$scope module fx $end
$var reg 1 !# a $end
$var reg 1 "# b $end
$var reg 1 ## cin $end
$var reg 1 $# s $end
$var reg 1 %# cout $end
$upscope $end
$upscope $end
$scope module loop1(14) $end
$scope module fx $end
$var reg 1 &# a $end
$var reg 1 '# b $end
$var reg 1 (# cin $end
$var reg 1 )# s $end
$var reg 1 *# cout $end
$upscope $end
$upscope $end
$scope module loop1(15) $end
$scope module fx $end
$var reg 1 +# a $end
$var reg 1 ,# b $end
$var reg 1 -# cin $end
$var reg 1 .# s $end
$var reg 1 /# cout $end
$upscope $end
$upscope $end
$upscope $end
$upscope $end
$scope module sbcb $end
$var reg 16 0# a[15:0] $end
$var reg 16 1# b[15:0] $end
$var reg 1 2# carryin $end
$var reg 16 3# sum[15:0] $end
$var reg 1 4# carryout $end
$var reg 16 5# temp[15:0] $end
$scope module f0 $end
$var reg 1 6# a $end
$var reg 1 7# b $end
$var reg 1 8# cin $end
$var reg 1 9# s $end
$var reg 1 :# cout $end
$upscope $end
$scope module loop1(1) $end
$scope module fx $end
$var reg 1 ;# a $end
$var reg 1 <# b $end
$var reg 1 =# cin $end
$var reg 1 ># s $end
$var reg 1 ?# cout $end
$upscope $end
$upscope $end
$scope module loop1(2) $end
$scope module fx $end
$var reg 1 @# a $end
$var reg 1 A# b $end
$var reg 1 B# cin $end
$var reg 1 C# s $end
$var reg 1 D# cout $end
$upscope $end
$upscope $end
$scope module loop1(3) $end
$scope module fx $end
$var reg 1 E# a $end
$var reg 1 F# b $end
$var reg 1 G# cin $end
$var reg 1 H# s $end
$var reg 1 I# cout $end
$upscope $end
$upscope $end
$scope module loop1(4) $end
$scope module fx $end
$var reg 1 J# a $end
$var reg 1 K# b $end
$var reg 1 L# cin $end
$var reg 1 M# s $end
$var reg 1 N# cout $end
$upscope $end
$upscope $end
$scope module loop1(5) $end
$scope module fx $end
$var reg 1 O# a $end
$var reg 1 P# b $end
$var reg 1 Q# cin $end
$var reg 1 R# s $end
$var reg 1 S# cout $end
$upscope $end
$upscope $end
$scope module loop1(6) $end
$scope module fx $end
$var reg 1 T# a $end
$var reg 1 U# b $end
$var reg 1 V# cin $end
$var reg 1 W# s $end
$var reg 1 X# cout $end
$upscope $end
$upscope $end
$scope module loop1(7) $end
$scope module fx $end
$var reg 1 Y# a $end
$var reg 1 Z# b $end
$var reg 1 [# cin $end
$var reg 1 \# s $end
$var reg 1 ]# cout $end
$upscope $end
$upscope $end
$scope module loop1(8) $end
$scope module fx $end
$var reg 1 ^# a $end
$var reg 1 _# b $end
$var reg 1 `# cin $end
$var reg 1 a# s $end
$var reg 1 b# cout $end
$upscope $end
$upscope $end
$scope module loop1(9) $end
$scope module fx $end
$var reg 1 c# a $end
$var reg 1 d# b $end
$var reg 1 e# cin $end
$var reg 1 f# s $end
$var reg 1 g# cout $end
$upscope $end
$upscope $end
$scope module loop1(10) $end
$scope module fx $end
$var reg 1 h# a $end
$var reg 1 i# b $end
$var reg 1 j# cin $end
$var reg 1 k# s $end
$var reg 1 l# cout $end
$upscope $end
$upscope $end
$scope module loop1(11) $end
$scope module fx $end
$var reg 1 m# a $end
$var reg 1 n# b $end
$var reg 1 o# cin $end
$var reg 1 p# s $end
$var reg 1 q# cout $end
$upscope $end
$upscope $end
$scope module loop1(12) $end
$scope module fx $end
$var reg 1 r# a $end
$var reg 1 s# b $end
$var reg 1 t# cin $end
$var reg 1 u# s $end
$var reg 1 v# cout $end
$upscope $end
$upscope $end
$scope module loop1(13) $end
$scope module fx $end
$var reg 1 w# a $end
$var reg 1 x# b $end
$var reg 1 y# cin $end
$var reg 1 z# s $end
$var reg 1 {# cout $end
$upscope $end
$upscope $end
$scope module loop1(14) $end
$scope module fx $end
$var reg 1 |# a $end
$var reg 1 }# b $end
$var reg 1 !$ cin $end
$var reg 1 "$ s $end
$var reg 1 #$ cout $end
$upscope $end
$upscope $end
$scope module loop1(15) $end
$scope module fx $end
$var reg 1 $$ a $end
$var reg 1 %$ b $end
$var reg 1 &$ cin $end
$var reg 1 '$ s $end
$var reg 1 ($ cout $end
$upscope $end
$upscope $end
$upscope $end
$upscope $end
$upscope $end
$enddefinitions $end
#0
0!
b0000111100001111 "
b0000000000001010 #
b0000000000000000 $
b00000 %
b00000 &
b00000 '
b00000 (
b0000111100001111 )
b0000000000001010 *
b0000000000000000 +
b00000 ,
b00000 -
b0000111100001111 .
b0000000000001010 /
b0000111100011001 0
b1111111111110110 1
b0000111100011001 2
b0000000000000000 3
04
05
06
b0000000000000000 7
b0000000000001010 8
b0000111100001111 9
0:
b0000111100011001 ;
0<
b0000000000001110 =
0>
1?
0@
1A
0B
1C
1D
0E
0F
1G
0H
1I
1J
0K
1L
1M
1N
1O
1P
1Q
0R
0S
1T
1U
0V
0W
0X
0Y
0Z
0[
0\
0]
0^
0_
0`
0a
0b
0c
0d
0e
0f
1g
0h
1i
0j
0k
1l
0m
1n
0o
0p
1q
0r
1s
0t
0u
1v
0w
1x
0y
0z
0{
0|
0}
0!"
0""
0#"
0$"
0%"
0&"
0'"
0("
0)"
0*"
0+"
0,"
0-"
0."
0/"
00"
b0000000000001010 1"
b1111111111110110 2"
b1111111111110101 3"
b0000000000000001 4"
05"
06"
b1111111111110101 7"
b0000000000000001 8"
09"
b1111111111110110 :"
0;"
b0000000000000001 <"
1="
1>"
0?"
0@"
1A"
0B"
0C"
1D"
1E"
0F"
1G"
0H"
0I"
1J"
0K"
0L"
0M"
0N"
0O"
0P"
1Q"
0R"
0S"
1T"
0U"
1V"
0W"
0X"
1Y"
0Z"
1["
0\"
0]"
1^"
0_"
1`"
0a"
0b"
1c"
0d"
1e"
0f"
0g"
1h"
0i"
1j"
0k"
0l"
1m"
0n"
1o"
0p"
0q"
1r"
0s"
1t"
0u"
0v"
1w"
0x"
1y"
0z"
0{"
1|"
0}"
1!#
0"#
0##
1$#
0%#
1&#
0'#
0(#
1)#
0*#
1+#
0,#
0-#
1.#
0/#
b0000000000000000 0#
b0000111100011001 1#
02#
b0000111100011001 3#
04#
b0000000000000000 5#
06#
17#
08#
19#
0:#
0;#
0<#
0=#
0>#
0?#
0@#
0A#
0B#
0C#
0D#
0E#
1F#
0G#
1H#
0I#
0J#
1K#
0L#
1M#
0N#
0O#
0P#
0Q#
0R#
0S#
0T#
0U#
0V#
0W#
0X#
0Y#
0Z#
0[#
0\#
0]#
0^#
1_#
0`#
1a#
0b#
0c#
1d#
0e#
1f#
0g#
0h#
1i#
0j#
1k#
0l#
0m#
1n#
0o#
1p#
0q#
0r#
0s#
0t#
0u#
0v#
0w#
0x#
0y#
0z#
0{#
0|#
0}#
0!$
0"$
0#$
0$$
0%$
0&$
0'$
0($
#5000000
1!
#10000000
0!
b1111101000001111 "
b0000000000000000 #
b1111101000001111 $
b11000 '
b11000 (
b1111101000001111 )
b0000000000000000 *
b1111101000001111 +
b1111101000001111 .
b0000000000000000 /
b1111101000001111 0
b0000000000000000 1
b1111101000001111 2
b1111101000001111 7
b0000000000000000 8
b1111101000001111 9
b1111101000001111 ;
b0000000000000000 =
0C
1F
0G
0J
1K
0L
0M
0O
1P
0Q
0T
0U
0g
0i
0q
0s
1{
1}
1#"
1%"
1("
1*"
1-"
1/"
b0000000000000000 1"
b0000000000000000 2"
b1111111111111111 3"
16"
b1111111111111111 7"
b0000000000000000 :"
1;"
b1111111111111111 <"
1B"
0E"
1F"
1I"
0J"
1K"
1L"
1N"
0O"
1P"
1S"
0T"
1U"
1X"
0Y"
1Z"
1]"
0^"
1_"
1b"
0c"
1d"
1g"
0h"
1i"
1l"
0m"
1n"
1q"
0r"
1s"
1v"
0w"
1x"
1{"
0|"
1}"
1##
0$#
1%#
1(#
0)#
1*#
1-#
0.#
1/#
b1111101000001111 1#
b1111101000001111 3#
1<#
1>#
1A#
1C#
1F#
1H#
0K#
0M#
0_#
0a#
0i#
0k#
1s#
1u#
1x#
1z#
1}#
1"$
1%$
1'$
#15000000
1!
#20000000
0!
b0000111100001111 "
b0000000000001010 #
b0000000000001010 $
b10000 &
b00101 '
b00101 (
b0000111100001111 )
b0000000000001010 *
b0000000000001010 +
b10000 -
b0000111100001111 .
b0000000000001010 /
b0000111100011001 0
b1111111111110110 1
b0000111100011001 2
b0000000000001010 7
b0000000000001010 8
b0000111100001111 9
b0000111100011001 ;
b0000000000001110 =
1C
0F
1G
1J
0K
1L
1M
1O
1P
1Q
1T
1U
1g
1i
1q
1s
0{
0}
0#"
0%"
0("
0*"
0-"
0/"
b0000000000001010 1"
b1111111111110110 2"
b1111111111110101 3"
06"
b1111111111110101 7"
b1111111111110110 :"
0;"
b0000000000000001 <"
0B"
1E"
0F"
0I"
1J"
0K"
0L"
0N"
0O"
0P"
0S"
1T"
0U"
0X"
1Y"
0Z"
0]"
1^"
0_"
0b"
1c"
0d"
0g"
1h"
0i"
0l"
1m"
0n"
0q"
1r"
0s"
0v"
1w"
0x"
0{"
1|"
0}"
0##
1$#
0%#
0(#
1)#
0*#
0-#
1.#
0/#
b0000111100011001 1#
b0000111100011001 3#
0<#
0>#
0A#
0C#
1F#
1H#
1K#
1M#
1_#
1a#
1i#
1k#
0s#
0u#
0x#
0z#
0}#
0"$
0%$
0'$
#25000000
1!
#30000000
0!
b0000111100001111 $
b00000 &
b00110 '
b00110 (
b0000111100001111 +
b00000 -
b0000111100001111 7
#35000000
1!
#40000000
0!
b1111000011111010 $
b10100 &
b00111 '
b00111 (
b1111000011111010 +
b10100 -
b1111000011111010 7
#45000000
1!
#50000000
0!
b0000000000000000 "
b0000000000000000 #
b1111111111111111 $
b00100 &
b01010 '
b01010 (
b0000000000000000 )
b0000000000000000 *
b1111111111111111 +
b00100 -
b0000000000000000 .
b0000000000000000 /
b0000000000000000 0
b0000000000000000 1
b0000000000000000 2
b1111111111111111 7
b0000000000000000 8
b0000000000000000 9
b0000000000000000 ;
b0000000000000000 =
0?
0A
0C
0D
0G
0I
0J
0K
0L
0M
0N
0O
0P
0Q
0T
0U
0g
0i
0l
0n
0q
0s
0v
0x
b0000000000000000 1"
b0000000000000000 2"
b1111111111111111 3"
16"
b1111111111111111 7"
b0000000000000000 :"
1;"
b1111111111111111 <"
1B"
0E"
1F"
1I"
0J"
1K"
1L"
1N"
0O"
1P"
1S"
0T"
1U"
1X"
0Y"
1Z"
1]"
0^"
1_"
1b"
0c"
1d"
1g"
0h"
1i"
1l"
0m"
1n"
1q"
0r"
1s"
1v"
0w"
1x"
1{"
0|"
1}"
1##
0$#
1%#
1(#
0)#
1*#
1-#
0.#
1/#
b0000000000000000 1#
b0000000000000000 3#
07#
09#
0A#
0C#
0F#
0H#
0K#
0M#
0_#
0a#
0d#
0f#
0i#
0k#
0n#
0p#
#55000000
1!
#60000000
0!
b1111111111111111 "
b0000000000000000 $
b10010 &
b1111111111111111 )
b0000000000000000 +
b10010 -
b1111111111111111 .
b1111111111111111 0
b1111111111111111 2
b0000000000000000 7
b1111111111111111 9
b1111111111111111 ;
1?
1A
1D
1F
1I
1K
1N
1P
1S
1U
1X
1Z
1]
1_
1b
1d
1g
1i
1l
1n
1q
1s
1v
1x
1{
1}
1#"
1%"
1("
1*"
1-"
1/"
b1111111111111111 1#
b1111111111111111 3#
17#
19#
1<#
1>#
1A#
1C#
1F#
1H#
1K#
1M#
1P#
1R#
1U#
1W#
1Z#
1\#
1_#
1a#
1d#
1f#
1i#
1k#
1n#
1p#
1s#
1u#
1x#
1z#
1}#
1"$
1%$
1'$
#65000000
1!
#70000000
0!
b1111101000001111 "
b10010 '
b10010 (
b1111101000001111 )
b1111101000001111 .
b1111101000001111 0
b1111101000001111 2
b1111101000001111 9
b1111101000001111 ;
0S
0U
0X
0Z
0]
0_
0b
0d
0g
0i
0q
0s
b1111101000001111 1#
b1111101000001111 3#
0K#
0M#
0P#
0R#
0U#
0W#
0Z#
0\#
0_#
0a#
0i#
0k#
#75000000
1!
#80000000
0!
b0000000000000001 "
b0000000000000000 $
b10011 &
b01001 '
b01001 (
b0000000000000001 )
b0000000000000000 +
b10011 -
b0000000000000001 .
b1111111111111111 /
b0000000000000000 0
b0000000000000000 2
15
b0000000000000000 7
b1111111111111111 8
b0000000000000001 9
b0000000000000000 ;
1<
b1111111111111111 =
1>
0A
1B
1C
0D
1E
0F
1G
1H
0I
1J
0K
1L
1M
0N
1O
0P
1Q
1R
1T
0U
1V
1W
1Y
0Z
1[
1\
1^
0_
1`
1a
1c
0d
1e
1f
1h
0i
1j
1k
0l
1m
0n
1o
1p
1r
0s
1t
1u
0v
1w
0x
1y
1z
0{
1|
0}
1!"
1""
0#"
1$"
0%"
1&"
1'"
0("
1)"
0*"
1+"
1,"
0-"
1."
0/"
10"
b0000000000000000 1#
b0000000000000000 3#
07#
09#
0<#
0>#
0A#
0C#
0F#
0H#
0K#
0M#
0P#
0R#
0U#
0W#
0Z#
0\#
0_#
0a#
0d#
0f#
0i#
0k#
0n#
0p#
0s#
0u#
0x#
0z#
0}#
0"$
0%$
0'$
#85000000
1!
#90000000
0!
b0000000000000010 $
b10000 &
b01000 '
b01000 (
b0000000000000010 +
b10000 -
b0000000000000000 /
b0000000000000010 0
b0000000000000010 2
14
05
b0000000000000010 7
b0000000000000000 8
1:
b0000000000000010 ;
0<
b0000000000000001 =
0>
1@
0C
1F
0G
0H
0J
0K
0L
0M
0O
0P
0Q
0R
0T
0U
0V
0W
0Y
0Z
0[
0\
0^
0_
0`
0a
0c
0d
0e
0f
0h
0i
0j
0k
0m
0n
0o
0p
0r
0s
0t
0u
0w
0x
0y
0z
0|
0}
0!"
0""
0$"
0%"
0&"
0'"
0)"
0*"
0+"
0,"
0."
0/"
00"
b0000000000000010 1#
b0000000000000010 3#
1<#
1>#
0A#
0C#
0F#
0H#
0K#
0M#
0P#
0R#
0U#
0W#
0Z#
0\#
0_#
0a#
0d#
0f#
0i#
0k#
0n#
0p#
0s#
0u#
0x#
0z#
0}#
0"$
0%$
0'$
#95000000
1!
#100000000
0!
b1111111111111111 "
b0000000000000000 $
b10011 &
b1111111111111111 )
b0000000000000000 +
b10011 -
b1111111111111111 .
b0000000000000000 0
b0000000000000000 2
15
b0000000000000000 7
b1111111111111111 9
b0000000000000000 ;
1<
b1111111111111111 =
1D
0F
1G
1I
1J
0K
1L
1N
1O
0P
1Q
1S
1T
0U
1V
1X
1Y
0Z
1[
1]
1^
0_
1`
1b
1c
0d
1e
1g
1h
0i
1j
1l
1m
0n
1o
1q
1r
0s
1t
1v
1w
0x
1y
1{
1|
0}
1!"
1#"
1$"
0%"
1&"
1("
1)"
0*"
1+"
1-"
1."
0/"
10"
b0000000000000000 1#
b0000000000000000 3#
0<#
0>#
0A#
0C#
0F#
0H#
0K#
0M#
0P#
0R#
0U#
0W#
0Z#
0\#
0_#
0a#
0d#
0f#
0i#
0k#
0n#
0p#
0s#
0u#
0x#
0z#
0}#
0"$
0%$
0'$
#105000000
1!
#110000000
0!
b1111111111111110 $
b10101 &
b01011 '
b01011 (
b1111111111111110 +
b10101 -
b1111111111111111 0
b1111111111111111 2
04
05
b1111111111111110 7
0:
b1111111111111111 ;
0<
b0000000000000000 =
0@
1A
0B
0E
1F
0G
0J
1K
0L
0O
1P
0Q
0T
1U
0V
0Y
1Z
0[
0^
1_
0`
0c
1d
0e
0h
1i
0j
0m
1n
0o
0r
1s
0t
0w
1x
0y
0|
1}
0!"
0$"
1%"
0&"
0)"
1*"
0+"
0."
1/"
00"
b1111111111111111 1#
b1111111111111111 3#
17#
19#
1<#
1>#
1A#
1C#
1F#
1H#
1K#
1M#
1P#
1R#
1U#
1W#
1Z#
1\#
1_#
1a#
1d#
1f#
1i#
1k#
1n#
1p#
1s#
1u#
1x#
1z#
1}#
1"$
1%$
1'$
#115000000
1!
#120000000
0!
b0111111111111111 $
b00001 &
b01111 '
b01111 (
b0111111111111111 +
b00001 -
b0111111111111111 7
#125000000
1!
#130000000
0!
b1111111111110001 "
b1111111111111000 $
b10100 &
b01100 '
b01100 (
b1111111111110001 )
b1111111111111000 +
b10100 -
b1111111111110001 .
b1111111111110001 0
b1111111111110001 2
b1111111111111000 7
b1111111111110001 9
b1111111111110001 ;
0D
0F
0I
0K
0N
0P
b1111111111110001 1#
b1111111111110001 3#
0<#
0>#
0A#
0C#
0F#
0H#
#135000000
1!
#140000000
0!
b0000000000000000 "
b0000000000000000 $
b10010 &
b0000000000000000 )
b0000000000000000 +
b10010 -
b0000000000000000 .
b0000000000000000 0
b0000000000000000 2
b0000000000000000 7
b0000000000000000 9
b0000000000000000 ;
0?
0A
0S
0U
0X
0Z
0]
0_
0b
0d
0g
0i
0l
0n
0q
0s
0v
0x
0{
0}
0#"
0%"
0("
0*"
0-"
0/"
b0000000000000000 1#
b0000000000000000 3#
07#
09#
0K#
0M#
0P#
0R#
0U#
0W#
0Z#
0\#
0_#
0a#
0d#
0f#
0i#
0k#
0n#
0p#
0s#
0u#
0x#
0z#
0}#
0"$
0%$
0'$
#145000000
1!
#150000000
0!
b1111111111110000 "
b1111111111100001 $
b00100 &
b10000 '
b10000 (
b1111111111110000 )
b1111111111100001 +
b00100 -
b1111111111110000 .
b1111111111110000 0
b1111111111110000 2
b1111111111100001 7
b1111111111110000 9
b1111111111110000 ;
1S
1U
1X
1Z
1]
1_
1b
1d
1g
1i
1l
1n
1q
1s
1v
1x
1{
1}
1#"
1%"
1("
1*"
1-"
1/"
b1111111111110000 1#
b1111111111110000 3#
1K#
1M#
1P#
1R#
1U#
1W#
1Z#
1\#
1_#
1a#
1d#
1f#
1i#
1k#
1n#
1p#
1s#
1u#
1x#
1z#
1}#
1"$
1%$
1'$
#155000000
1!
#160000000
0!
b0000000000000000 "
b0000000000000000 $
b10010 &
b0000000000000000 )
b0000000000000000 +
b10010 -
b0000000000000000 .
b0000000000000000 0
b0000000000000000 2
b0000000000000000 7
b0000000000000000 9
b0000000000000000 ;
0S
0U
0X
0Z
0]
0_
0b
0d
0g
0i
0l
0n
0q
0s
0v
0x
0{
0}
0#"
0%"
0("
0*"
0-"
0/"
b0000000000000000 1#
b0000000000000000 3#
0K#
0M#
0P#
0R#
0U#
0W#
0Z#
0\#
0_#
0a#
0d#
0f#
0i#
0k#
0n#
0p#
0s#
0u#
0x#
0z#
0}#
0"$
0%$
0'$
#165000000
1!
#170000000
0!
b0000000000010001 "
b0000000000100011 $
b00001 %
b00000 &
b10001 '
b10001 (
b0000000000010001 )
b0000000000100011 +
b00001 ,
b00000 -
b0000000000010001 .
b0000000000010001 0
b0000000000010000 2
b1111111111111111 3
16
b0000000000100011 7
b0000000000010001 9
b0000000000010001 ;
1?
1A
1S
1U
b1111111111111111 0#
b0000000000010001 1#
b0000000000010000 3#
14#
b1111111111111111 5#
16#
17#
09#
1:#
1;#
1=#
0>#
1?#
1@#
1B#
0C#
1D#
1E#
1G#
0H#
1I#
1J#
1K#
1L#
1M#
1N#
1O#
1Q#
0R#
1S#
1T#
1V#
0W#
1X#
1Y#
1[#
0\#
1]#
1^#
1`#
0a#
1b#
1c#
1e#
0f#
1g#
1h#
1j#
0k#
1l#
1m#
1o#
0p#
1q#
1r#
1t#
0u#
1v#
1w#
1y#
0z#
1{#
1|#
1!$
0"$
1#$
1$$
1&$
0'$
1($
#175000000
1!
#180000000
0!
b0000000000000000 "
b0000000000000001 $
b0000000000000000 )
b0000000000000001 +
b0000000000000000 .
b0000000000000000 0
b1111111111111111 2
06
b0000000000000001 7
b0000000000000000 9
b0000000000000000 ;
0?
0A
0S
0U
b0000000000000000 1#
b1111111111111111 3#
04#
b0000000000000000 5#
07#
19#
0:#
0=#
1>#
0?#
0B#
1C#
0D#
0G#
1H#
0I#
0K#
0L#
1M#
0N#
0Q#
1R#
0S#
0V#
1W#
0X#
0[#
1\#
0]#
0`#
1a#
0b#
0e#
1f#
0g#
0j#
1k#
0l#
0o#
1p#
0q#
0t#
1u#
0v#
0y#
1z#
0{#
0!$
1"$
0#$
0&$
1'$
0($
#185000000
1!
#190000000
0!
b1000000000000000 "
b0000000000000000 $
b00000 %
b10011 &
b1000000000000000 )
b0000000000000000 +
b00000 ,
b10011 -
b1000000000000000 .
b1000000000000000 0
b1000000000000000 2
b0000000000000000 3
b0000000000000000 7
b1000000000000000 9
b1000000000000000 ;
1-"
1/"
b0000000000000000 0#
b1000000000000000 1#
b1000000000000000 3#
06#
09#
0;#
0>#
0@#
0C#
0E#
0H#
0J#
0M#
0O#
0R#
0T#
0W#
0Y#
0\#
0^#
0a#
0c#
0f#
0h#
0k#
0m#
0p#
0r#
0u#
0w#
0z#
0|#
0"$
0$$
1%$
1'$
#195000000
1!
#200000000
0!
b0001000100000000 "
b1000100010000000 $
b00001 %
b10100 &
b01101 '
b01101 (
b0001000100000000 )
b1000100010000000 +
b00001 ,
b10100 -
b0001000100000000 .
b0001000100000000 0
b0001000011111111 2
b1111111111111111 3
16
b1000100010000000 7
b0001000100000000 9
b0001000100000000 ;
1g
1i
1{
1}
0-"
0/"
b1111111111111111 0#
b0001000100000000 1#
b0001000011111111 3#
14#
b1111111100000000 5#
16#
19#
1;#
1>#
1@#
1C#
1E#
1H#
1J#
1M#
1O#
1R#
1T#
1W#
1Y#
1\#
1^#
1_#
0a#
1b#
1c#
1e#
0f#
1g#
1h#
1j#
0k#
1l#
1m#
1o#
0p#
1q#
1r#
1s#
1t#
1u#
1v#
1w#
1y#
0z#
1{#
1|#
1!$
0"$
1#$
1$$
0%$
1&$
0'$
1($
#205000000
1!
#210000000
0!
b0000000000000000 "
b1000000000000000 $
b0000000000000000 )
b1000000000000000 +
b0000000000000000 .
b0000000000000000 0
b1111111111111111 2
06
b1000000000000000 7
b0000000000000000 9
b0000000000000000 ;
0g
0i
0{
0}
b0000000000000000 1#
b1111111111111111 3#
04#
b0000000000000000 5#
0_#
1a#
0b#
0e#
1f#
0g#
0j#
1k#
0l#
0o#
1p#
0q#
0s#
0t#
1u#
0v#
0y#
1z#
0{#
0!$
1"$
0#$
0&$
1'$
0($
#215000000
1!
